<svg xmlns="http://www.w3.org/2000/svg" width="24" height="24" viewBox="0 0 24 24">
    <g fill="none" fill-rule="evenodd">
        <g fill="#1600d5" fill-rule="nonzero">
            <path d="M1.005 1.005c.246-.246.63-.27.903-.074l.087.074 12 12c.273.273.273.717 0 .99-.246.246-.63.27-.903.074l-.087-.074-12-12c-.273-.273-.273-.717 0-.99z" transform="translate(5 5)"/>
            <path d="M13.995 1.005c-.246-.246-.63-.27-.903-.074l-.087.074-12 12c-.273.273-.273.717 0 .99.246.246.63.27.903.074l.087-.074 12-12c.273-.273.273-.717 0-.99z" transform="translate(5 5)"/>
        </g>
    </g>
</svg>